…
## See spec(...) for full column specifications.

moma

## # A tibble: 2,253 x 23
##    title  artist  artist_bio artist_birth_ye… artist_death_ye… num_artists
##    <chr>  <chr>   <chr>                 <int>            <dbl>       <int>
##  1 Rope … Joan M… (Spanish,…             1893             1983           1
##  2 Fire … Paul K… (German, …             1879             1940           1
##  3 Portr… Paul K… (German, …             1879             1940           1
##  4 Guitar Pablo … (Spanish,…             1881             1973           1
##  5 Grand… Arthur… (American…             1880             1946           1
##  6 "\"M'… Franci… (French, …             1879             1953           1
##  7 Untit… Blinky… (German, …             1943             1977           1
##  8 Dayli… Pierre… (French, …             1880             1950           1
##  9 The B… Paul C… (French, …             1839             1906           1
## 10 Synth… Enrico… (Italian,…             1894             1956           1
## # ... with 2,243 more rows, and 17 more variables: n_female_artists <int>,
## #   n_male_artists <int>, artist_gender <chr>, year_acquired <dbl>,
## #   year_created <int>, circumference_cm <chr>, depth_cm <dbl>,
## #   diameter_cm <chr>, height_cm <dbl>, length_cm <chr>, width_cm <dbl>,
## #   seat_height_cm <chr>, purchase <lgl>, gift <lgl>, exchange <lgl>,
## #   classification <chr>, department <chr>
…
