…
guns_pnw <- guns %>% 
  filter(state == c("Oregon", "California", "Washington")) %>% 
  group_by(year, state) %>% 
  summarize(guns_sold_year = sum(guns_sold))

## Warning in `==.default`(state, c("Oregon", "California", "Washington")):
## longer object length is not a multiple of shorter object length

## Warning in is.na(e1) | is.na(e2): longer object length is not a multiple of
## shorter object length

guns_pnw

## # A tibble: 53 x 3
## # Groups:   year [?]
##     year state      guns_sold_year
##    <int> <fct>               <int>
##  1  1998 California           1834
##  2  1998 Oregon                383
##  3  1999 California         270712
##  4  1999 Oregon              57759
##  5  1999 Washington          42676
##  6  2000 California         228888
##  7  2000 Oregon              47193
##  8  2000 Washington          40299
##  9  2001 California         218652
## 10  2001 Oregon              47770
## # ... with 43 more rows
…
## Warning in `==.default`(state, c("Oregon", "Washington", "California")):
## longer object length is not a multiple of shorter object length

## Warning in is.na(e1) | is.na(e2): longer object length is not a multiple of
## shorter object length

guns_pnw_2

## # A tibble: 50 x 5
## # Groups:   state, year [?]
##    state       year population guns_sold_year state_pop
##    <fct>      <int> <chr>               <int>     <dbl>
##  1 California  1999 38041430           252317  38041430
##  2 California  2000 38041430           208764  38041430
##  3 California  2001 38041430           231185  38041430
##  4 California  2002 38041430           169155  38041430
##  5 California  2003 38041430           126375  38041430
##  6 California  2004 38041430           140229  38041430
##  7 California  2005 38041430           156920  38041430
##  8 California  2006 38041430           158989  38041430
##  9 California  2007 38041430           134387  38041430
## 10 California  2008 38041430           149958  38041430
## # ... with 40 more rows

#creating the guns sold per thousand people:
guns_pnw_2 <- guns_pnw_2 %>% 
  mutate(guns_sold_year_normalized_per_thousand = (1000*guns_sold_year/state_pop))

guns_pnw_2

## # A tibble: 50 x 6
## # Groups:   state, year [50]
##    state       year population guns_sold_year state_pop guns_sold_year_no…
##    <fct>      <int> <chr>               <int>     <dbl>              <dbl>
##  1 California  1999 38041430           252317  38041430               6.63
##  2 California  2000 38041430           208764  38041430               5.49
##  3 California  2001 38041430           231185  38041430               6.08
##  4 California  2002 38041430           169155  38041430               4.45
##  5 California  2003 38041430           126375  38041430               3.32
##  6 California  2004 38041430           140229  38041430               3.69
##  7 California  2005 38041430           156920  38041430               4.12
##  8 California  2006 38041430           158989  38041430               4.18
##  9 California  2007 38041430           134387  38041430               3.53
## 10 California  2008 38041430           149958  38041430               3.94
## # ... with 40 more rows
…
