…
library(dplyr)
library(ggplot2)
library(gapminder)
library(skimr)
library(scales)

Original question:

Report the absolute and/or relative abundance of countries with low life expectancy over time by continent: Compute some measure of worldwide life expectancy - you decide - a mean or median or some other quantile or perhaps your current age. Then determine how many countries on each continent have a life expectancy less than this benchmark, for each year.

EDA:

gapminder

## # A tibble: 1,704 x 6
##    country     continent  year lifeExp      pop gdpPercap
##    <fct>       <fct>     <int>   <dbl>    <int>     <dbl>
##  1 Afghanistan Asia       1952    28.8  8425333      779.
##  2 Afghanistan Asia       1957    30.3  9240934      821.
##  3 Afghanistan Asia       1962    32.0 10267083      853.
##  4 Afghanistan Asia       1967    34.0 11537966      836.
##  5 Afghanistan Asia       1972    36.1 13079460      740.
##  6 Afghanistan Asia       1977    38.4 14880372      786.
##  7 Afghanistan Asia       1982    39.9 12881816      978.
##  8 Afghanistan Asia       1987    40.8 13867957      852.
##  9 Afghanistan Asia       1992    41.7 16317921      649.
## 10 Afghanistan Asia       1997    41.8 22227415      635.
## # ... with 1,694 more rows
…
gapminder_with_median <- gapminder %>% 
  mutate(median_life_expectancy_worldwide = median(lifeExp)) %>% 
  mutate(lower_than_worldwide = case_when(lifeExp < median_life_expectancy_worldwide ~ TRUE,
                                          lifeExp >= median_life_expectancy_worldwide ~FALSE))

Editing original data frame:

countries_low_exp <- gapminder_with_median %>% 
  group_by(year, continent) %>% 
  filter(lower_than_worldwide == TRUE) %>% 
  count(lower_than_worldwide)

countries_low_exp

## # A tibble: 41 x 4
## # Groups:   year, continent [41]
##     year continent lower_than_worldwide     n
##    <int> <fct>     <lgl>                <int>
##  1  1952 Africa    TRUE                    52
##  2  1952 Americas  TRUE                    19
##  3  1952 Asia      TRUE                    30
##  4  1952 Europe    TRUE                     7
##  5  1957 Africa    TRUE                    52
##  6  1957 Americas  TRUE                    16
##  7  1957 Asia      TRUE                    27
##  8  1957 Europe    TRUE                     3
##  9  1962 Africa    TRUE                    52
## 10  1962 Americas  TRUE                    13
## # ... with 31 more rows
…
#using count and add_count to count the number of countries within each continent with low life expectancy
new_countries_low_life_exp <- gapminder_with_new_measure %>% 
  count(year, continent, lower_than_mean) %>% 
  add_count(year, continent, wt = n) %>% 
  rename(
    # new = old
    number_lower_higher = n, 
    total = nn
  )

new_countries_low_life_exp

## # A tibble: 104 x 5
## # Groups:   year [12]
##     year continent lower_than_mean number_lower_higher total
##    <int> <fct>     <lgl>                         <int> <int>
##  1  1952 Africa    FALSE                             2    52
##  2  1952 Africa    TRUE                             50    52
##  3  1952 Americas  FALSE                            16    25
##  4  1952 Americas  TRUE                              9    25
##  5  1952 Asia      FALSE                            11    33
##  6  1952 Asia      TRUE                             22    33
##  7  1952 Europe    FALSE                            29    30
##  8  1952 Europe    TRUE                              1    30
##  9  1952 Oceania   FALSE                             2     2
## 10  1957 Africa    FALSE                             2    52
## # ... with 94 more rows
…
